{
  "sections": {
    "main": {
      "type": "main-collection",
      "settings": {
        "show_image_behind_heading": false,
        "heading_image_height": "large",
        "coll_num_per_page_int": 24,
        "grid": 3,
        "show_vendor": false,
        "show_total": false,
        "coll_desc_pos": "above",
        "enable_filtering": false,
        "collapse_tag_sidebar_by_default": false,
        "collapse_filters_method": "over-12",
        "show_filter_counts": false,
        "ajax_products": true,
        "enable_sticky_filter": true,
        "filter_two_columns": true,
        "filter_two_columns_swatches": true,
        "coll_show_sort": true,
        "coll_show_feat": false,
        "enable_subcoll": true,
        "subcoll_menu": "new-menu-with-mega-college",
        "subcoll_style": "gallery",
        "subcoll_gall_shape": "sq",
        "image_position": "center center",
        "subcoll_gall_enable_margin": true,
        "subcoll_gall_full_width": false,
        "subcoll_gall_overlay_style": "no_background",
        "subcoll_gall_text_alignment": "center center",
        "subcoll_gall_mobile_layout": "2"
      }
    },
    "pf-24680912": {
      "type": "pf-24680912",
      "settings": {}
    }
  },
  "order": [
    "main",
    "pf-24680912"
  ]
}