{
  "sections": {
    "main": {
      "type": "main-page",
      "settings": {
        "full_width": true
      }
    },
    "1637070329b454c7ba": {
      "type": "custom-row",
      "blocks": {
        "163707032943ed11d6-0": {
          "type": "image",
          "settings": {
            "width": "full",
            "image": "shopify:\/\/shop_images\/WEBSITE_-_STATIC_PAGES_6.png",
            "image_position": "center center",
            "height": "adapt",
            "height_desktop": 600,
            "height_mobile": 500,
            "subheading": "",
            "title": "",
            "text": "",
            "enlarge_text": false,
            "button_label": "",
            "image_link": "",
            "text_alignment": "center center",
            "mobile_overlay_under": false,
            "overlay_style": "no_background"
          }
        }
      },
      "block_order": [
        "163707032943ed11d6-0"
      ],
      "settings": {
        "alignment": "middle"
      }
    },
    "16370711213ba45ce3": {
      "type": "rich-text",
      "blocks": {
        "16370711210e3c994a-1": {
          "type": "heading",
          "settings": {
            "title": "POLICIES & COMMON QUESTIONS",
            "use_h1": true
          }
        },
        "16370711210e3c994a-2": {
          "type": "text",
          "settings": {
            "text": "<p>We stand behind our products and want you to be satisfied with them! We always do our best to take care of our customers - addressing all situations fairly and responsibly. If you received a damaged or defective item, please contact us within 30 days of receiving the damaged item so we can rectify this. Please call us at 855-343-6100 or email us at support@shopthesoho.com and we will fix this right away! <\/p>",
            "enlarge_text": false
          }
        }
      },
      "block_order": [
        "16370711210e3c994a-1",
        "16370711210e3c994a-2"
      ],
      "settings": {
        "height": "medium",
        "text_alignment": "center",
        "full_width": false,
        "use_alt_bg": false
      }
    },
    "1637070378677dc582": {
      "type": "custom-row",
      "blocks": {
        "1637070378625a8065-1": {
          "type": "text",
          "settings": {
            "width": "half",
            "subheading": "",
            "title": "Holiday Returns & Exchanges Policy",
            "text": "<p><strong>OUR HOLIDAY RETURN POLICY IS EFFECTIVE STARTING NOVEMBER 1, 2021. <\/strong><\/p><p>We have an extended return policy for the holiday season. Orders placed from November 1, 2021 to December 10, 2021 can be returned up until January 10, 2021. Orders placed December 11, 2021 and on will follow our normal 30 day return policy. Items purchased prior to November 1, 2021 are not eligible for the Holiday Return Policy. Full priced items may be returned for Store Credit Only. <strong>We do not offer refunds to method of payment!<\/strong><\/p><p>Items without an invoice or gift receipt are not eligible for return or exchange. Accessories, Handbags, Jewelry, Style Steals and Final Sale items are FINAL SALE regardless of our Holiday Return Policy. Items must be returned in the condition in which you received, unworn and unwashed. Please ensure the contents of your return matches the list generated for your package. Do not include additional items not listed on the packing slip.<\/p>",
            "button_label": "",
            "button_link": "",
            "button_style": "primary",
            "text_alignment": "left"
          }
        },
        "571f6c4f-035a-468b-80e0-24813faad116": {
          "type": "text",
          "settings": {
            "width": "half",
            "subheading": "",
            "title": "How do I return items?",
            "text": "<p>Begin your return by using the Returns & Exchanges portal above. Once you enter your email address a link will be sent guiding you to your Order History. Once there, please select the eligible items you would like to return. After completing the returns process a packing slip and prepaid UPS return label will be emailed directly to you. Print the label out and send your package back. Please ensure that ALL APPROVED ITEMS listed on the packing slip are included in the SAME package.<\/p><p><strong>Merchandise must be returned within 30 days of the fulfillment date to qualify for store credit. <\/strong><\/p>",
            "button_label": "",
            "button_link": "",
            "button_style": "primary",
            "text_alignment": "left"
          }
        },
        "7cc985e6-84e1-4f49-af7d-a96eca28ee37": {
          "type": "text",
          "settings": {
            "width": "half",
            "subheading": "",
            "title": "How do I exchange an item(s)?",
            "text": "<p>Enter your email address in the box above to start your exchange. Once you enter your email address a link will be sent guiding you to your Order History. Once there, please select the eligible items you would like to exchange. Please note that we only offer exchanges for the same item in a different size, if available. After we receive your exchange request, we will begin processing your order. Please allow 1-3 business days for the exchange request to be processed and shipped. Once your exchange has shipped, you will receive an email with tracking information. Your exchange will arrive within 2-3 business days once shipped. <\/p>",
            "button_label": "",
            "button_link": "",
            "button_style": "primary",
            "text_alignment": "left"
          }
        },
        "90e45e10-c90b-459f-ae88-4d5bd16c3fed": {
          "type": "text",
          "settings": {
            "width": "half",
            "subheading": "",
            "title": "How soon will I get my credit?",
            "text": "<p>Expect an emailed e-gift card within 2-5 business days of the delivery of your return to our warehouse, based on the high volume of returns. Please note this increase of processing time is due to seasonal and holiday time periods. We appreciate your patience while we work quickly to get our staffing and processing needs resolved. Store credit is calculated automatically to reflect any discounts and taxes at time of purchase. Store credit is not processed the day your item is delivered. It must be sorted, inspected, and then processed.<\/p>",
            "button_label": "",
            "button_link": "",
            "button_style": "primary",
            "text_alignment": "left"
          }
        },
        "b6591aa9-7b41-4996-9cde-0a7a6c92a0c9": {
          "type": "text",
          "settings": {
            "width": "full",
            "subheading": "",
            "title": "Additional Return & Exchange Information",
            "text": "<p>- We only offer STORE CREDIT for returns. We don't issue refunds back to your method of payment. <\/p><p>- The amount of your store credit is only for the item(s) you purchased and does not include the shipping.<\/p><p>- Merchandise must be returned within 30 days of the fulfillment date.<\/p><p>- Merchandise must be unwashed and unworn. <\/p><p>- Shoes must be unworn and free of any scuffs or marks. Shoes must be returned in their original box and placed inside an additional, protective shipping box. Damage to the shoe box makes the shoes ineligible for returns. In this case, the shoes will be shipped back to you and you are subject to the return shipping costs.<\/p><p>- Store credit cannot be applied to future purchases until the return is processed. Meaning, you cannot apply the store credit before we have actually issued it to you.<\/p><p>- During the returns process if an item is ineligible for a return you will not be able to select that item for return. This will be all items past the policy time frame or ones that are Final Sale, Specialty Items, Accessories, Intimates + Bodysuits.<\/p><p>- If an item is ineligible for a return and it is included, we will have to send back the ineligible item to you.<\/p><p>- All Accessories are FINAL SALE and NOT eligible for returns. Accessories are jewelry, hats, scarves, sunglasses, handbags + belts.<\/p><p>- Bodysuits and intimates are FINAL SALE and NOT eligible for Returns.<\/p><p>-<strong> Any item on sale, clearance or marked down more than 40% is considered final sale and ineligible for return.<\/strong><\/p><p>- Any items labeled as specialty items are FINAL SALE and NOT eligible for returns.<\/p><p>- Please allow 2-5 business days for return processing. Once your return is processed, we will email you an e-gift card with your store credit that you can use on our website. <\/p><p>- Store credit expires 2 years from issue date.<\/p><p>- We do not cover return shipping for international purchases, APO addresses or PO Box addresses.<\/p>",
            "button_label": "",
            "button_link": "",
            "button_style": "primary",
            "text_alignment": "left"
          }
        }
      },
      "block_order": [
        "1637070378625a8065-1",
        "571f6c4f-035a-468b-80e0-24813faad116",
        "7cc985e6-84e1-4f49-af7d-a96eca28ee37",
        "90e45e10-c90b-459f-ae88-4d5bd16c3fed",
        "b6591aa9-7b41-4996-9cde-0a7a6c92a0c9"
      ],
      "settings": {
        "alignment": "top"
      }
    }
  },
  "order": [
    "main",
    "1637070329b454c7ba",
    "16370711213ba45ce3",
    "1637070378677dc582"
  ]
}