{
  "sections": {
    "main": {
      "type": "main-page",
      "settings": {
        "full_width": true
      }
    },
    "163595005412694f39": {
      "type": "featured-collection",
      "settings": {
        "title": "SHOP THE COLLAB",
        "collection": "madi-prewett-x-gameday-couture",
        "show_vendor": false,
        "enable_carousel": true,
        "grid": 3,
        "rows": 1,
        "use_alt_bg": false,
        "show_view_all": true,
        "full_width": true
      }
    },
    "163594911425573b54": {
      "type": "gallery",
      "blocks": {
        "163594911425573b54-0": {
          "type": "image",
          "settings": {
            "image": "shopify:\/\/shop_images\/Madi_March_Madness_Header_1024_x_1024_px_1.png",
            "alignment": "center center",
            "enlarge_image": false,
            "subheading": "",
            "title": "",
            "button_label": "",
            "link": "shopify:\/\/collections\/madi-prewett-x-gameday-couture",
            "text_alignment": "center center"
          }
        },
        "163594911425573b54-1": {
          "type": "image",
          "settings": {
            "image": "shopify:\/\/shop_images\/MADI_S_LOOKS_TO_LOVE_cfa02d45-326a-45ed-af4f-7564902a0052.png",
            "alignment": "center center",
            "enlarge_image": false,
            "subheading": "",
            "title": "",
            "button_label": "",
            "link": "shopify:\/\/collections\/madis-looks-to-love",
            "text_alignment": "center center"
          }
        }
      },
      "block_order": [
        "163594911425573b54-0",
        "163594911425573b54-1"
      ],
      "settings": {
        "grid": 2,
        "desktop_image_height": 650,
        "mobile_image_height": 400,
        "enable_margin": true,
        "full_width": false,
        "use_alt_bg": false,
        "enable_carousel": true,
        "overlay_style": "full",
        "button_style": "primary"
      }
    },
    "1637157418b2f8f1b7": {
      "type": "background-video",
      "disabled": true,
      "settings": {
        "video": "https:\/\/youtu.be\/aY5vXvwmGrU",
        "subheading": "",
        "title": "",
        "title_size": 34,
        "use_h1": false,
        "text": "",
        "enlarge_text": false,
        "button_label": "",
        "button_link": "",
        "text_alignment": "center center",
        "height_desktop": 600,
        "height_mobile": 500,
        "full_width": true,
        "overlay_style": "no_background"
      }
    },
    "1635949845b4b3b162": {
      "type": "rich-text",
      "blocks": {
        "1635949845b4b3b162-1": {
          "type": "heading",
          "settings": {
            "title": "gameday couture x madi prewett",
            "use_h1": false
          }
        },
        "1635949845b4b3b162-0": {
          "type": "subheading",
          "settings": {
            "subheading": "We've teamed up with bachelor & auburn alumn,  madison prewett to bring you a  selection of exclusive styles curated by madi herself"
          }
        },
        "1635949845b4b3b162-2": {
          "type": "text",
          "settings": {
            "text": "<p><a href=\"\/pages\/college-2\" title=\"- College -\">FIND YOUR TEAM <\/a><\/p>",
            "enlarge_text": true
          }
        }
      },
      "block_order": [
        "1635949845b4b3b162-1",
        "1635949845b4b3b162-0",
        "1635949845b4b3b162-2"
      ],
      "settings": {
        "height": "medium",
        "text_alignment": "center",
        "full_width": false,
        "use_alt_bg": true
      }
    },
    "16472673492d78dc22": {
      "type": "video",
      "settings": {
        "video": "https:\/\/youtu.be\/aY5vXvwmGrU",
        "subheading": "",
        "video_title": "MADI PREWETT X GAMEDAY COUTURE",
        "title_size": 34,
        "text": "",
        "enlarge_text": false,
        "text_alignment": "center center",
        "image": "shopify:\/\/shop_images\/GamedayCouture-706.jpg",
        "image_position": "center center",
        "full_width": true,
        "overlay_style": "full"
      }
    },
    "16359490896199dcd8": {
      "type": "slideshow",
      "disabled": true,
      "blocks": {
        "16359490896199dcd8-0": {
          "type": "image",
          "settings": {
            "image": "shopify:\/\/shop_images\/madi-prewett-graphics--desktop-images-1631738275649.jpg",
            "image_position": "center center",
            "mobile_image_position": "center center",
            "slide_link": "",
            "subheading": "",
            "title": "",
            "title_size": 46,
            "text": "",
            "enlarge_text": true,
            "button_label": "",
            "text_alignment": "center center"
          }
        }
      },
      "block_order": [
        "16359490896199dcd8-0"
      ],
      "settings": {
        "height": "adapt",
        "height_desktop": 600,
        "height_mobile": 500,
        "full_width": true,
        "mobile_overlay_under": false,
        "overlay_style": "full",
        "slide_transition": "fade",
        "slide_navigation": "arrows",
        "autoplay": true,
        "autoplay_speed": 7
      }
    },
    "16359491324b7b18c3": {
      "type": "collection-list",
      "disabled": true,
      "blocks": {
        "fc4cbee0-6de1-4e99-9eb0-6db25ca2e101": {
          "type": "collection",
          "settings": {
            "collection": "alabama-crimson-tide"
          }
        },
        "e9dcbc71-1f04-43fb-8c5f-dc552be34072": {
          "type": "collection",
          "settings": {
            "collection": "arkansas-razorbacks"
          }
        },
        "546687a0-7290-4787-b42c-f0d429864887": {
          "type": "collection",
          "settings": {
            "collection": "baylor-bears"
          }
        },
        "cec757eb-3d26-439e-9288-7fa390125dcf": {
          "type": "collection",
          "settings": {
            "collection": "clemson-tigers"
          }
        },
        "b0d5e134-6e40-4a75-817a-79846a508414": {
          "type": "collection",
          "settings": {
            "collection": "florida-gators"
          }
        },
        "9c04484e-98b9-4fed-aca8-2a73decc8dc2": {
          "type": "collection",
          "settings": {
            "collection": "florida-state-seminoles"
          }
        },
        "e2ea3332-1717-41b6-8e97-3831f1bbfe3a": {
          "type": "collection",
          "settings": {
            "collection": "georgia-bulldogs"
          }
        },
        "43c1e71e-4725-43a9-bb46-bd1bf07a21ad": {
          "type": "collection",
          "settings": {
            "collection": "kentucky-wildcats"
          }
        },
        "393c373e-7aeb-4c33-bb27-e1aff70a2560": {
          "type": "collection",
          "settings": {
            "collection": "lsu-tigers"
          }
        },
        "04728e76-8c70-4df7-afa1-aa80cec8c9d8": {
          "type": "collection",
          "settings": {
            "collection": "oklahoma-sooners"
          }
        },
        "7062ff95-6710-40cc-a362-13d1e1dcc272": {
          "type": "collection",
          "settings": {
            "collection": "oklahoma-state-cowboys"
          }
        },
        "260545a1-c9e2-463e-a763-aeadb2c5a980": {
          "type": "collection",
          "settings": {
            "collection": "ohio-state-buckeyes"
          }
        },
        "bbfe6d7e-b1c1-4f6a-8ba5-c93d7b2872d8": {
          "type": "collection",
          "settings": {
            "collection": "texas-longhorns"
          }
        },
        "7c3b7e5a-68e6-451c-af1f-6f5134158c1f": {
          "type": "collection",
          "settings": {
            "collection": "texas-tech-red-raiders"
          }
        },
        "6a690094-5768-44b3-921e-1249f468c828": {
          "type": "collection",
          "settings": {
            "collection": "west-virginia-mountaineers"
          }
        }
      },
      "block_order": [
        "fc4cbee0-6de1-4e99-9eb0-6db25ca2e101",
        "e9dcbc71-1f04-43fb-8c5f-dc552be34072",
        "546687a0-7290-4787-b42c-f0d429864887",
        "cec757eb-3d26-439e-9288-7fa390125dcf",
        "b0d5e134-6e40-4a75-817a-79846a508414",
        "9c04484e-98b9-4fed-aca8-2a73decc8dc2",
        "e2ea3332-1717-41b6-8e97-3831f1bbfe3a",
        "43c1e71e-4725-43a9-bb46-bd1bf07a21ad",
        "393c373e-7aeb-4c33-bb27-e1aff70a2560",
        "04728e76-8c70-4df7-afa1-aa80cec8c9d8",
        "7062ff95-6710-40cc-a362-13d1e1dcc272",
        "260545a1-c9e2-463e-a763-aeadb2c5a980",
        "bbfe6d7e-b1c1-4f6a-8ba5-c93d7b2872d8",
        "7c3b7e5a-68e6-451c-af1f-6f5134158c1f",
        "6a690094-5768-44b3-921e-1249f468c828"
      ],
      "settings": {
        "title": "TRENDING TEAMS",
        "enable_carousel": false,
        "grid": 5,
        "use_alt_bg": false,
        "full_width": false
      }
    },
    "1635950291950c70db": {
      "type": "featured-blog",
      "disabled": true,
      "settings": {
        "title": "Blog posts",
        "blog": "news",
        "post_limit": 3,
        "show_author": true,
        "show_date": true,
        "crop_ratio": "0.67"
      }
    },
    "1637157658c4763383": {
      "type": "rich-text",
      "blocks": {
        "16371576585e5a6b0b-0": {
          "type": "subheading",
          "settings": {
            "subheading": ""
          }
        }
      },
      "block_order": [
        "16371576585e5a6b0b-0"
      ],
      "settings": {
        "height": "medium",
        "text_alignment": "center",
        "full_width": false,
        "use_alt_bg": false
      }
    }
  },
  "order": [
    "main",
    "163595005412694f39",
    "163594911425573b54",
    "1637157418b2f8f1b7",
    "1635949845b4b3b162",
    "16472673492d78dc22",
    "16359490896199dcd8",
    "16359491324b7b18c3",
    "1635950291950c70db",
    "1637157658c4763383"
  ]
}